2023-09-11T04:02:46,938 [main] INFO  (APITest.java:26) - Verifying Employee's Firstname and last by Employee ID.................!!!
2023-09-11T04:02:48,743 [main] INFO  (ExtentReportListener.java:97) - java.lang.IllegalArgumentException: baseURI cannot be null
2023-09-11T04:02:48,785 [main] INFO  (ExtentReportListener.java:97) - java.lang.IllegalArgumentException: baseURI cannot be null
2023-09-11T04:04:30,914 [main] INFO  (APITest.java:26) - Verifying Employee's Firstname and last by Employee ID.................!!!
2023-09-11T04:04:35,380 [main] INFO  (APITest.java:29) - Employee details has been traced{
    "page": 2,
    "per_page": 6,
    "total": 12,
    "total_pages": 2,
    "data": [
        {
            "id": 7,
            "email": "michael.lawson@reqres.in",
            "first_name": "Michael",
            "last_name": "Lawson",
            "avatar": "https://reqres.in/img/faces/7-image.jpg"
        },
        {
            "id": 8,
            "email": "lindsay.ferguson@reqres.in",
            "first_name": "Lindsay",
            "last_name": "Ferguson",
            "avatar": "https://reqres.in/img/faces/8-image.jpg"
        },
        {
            "id": 9,
            "email": "tobias.funke@reqres.in",
            "first_name": "Tobias",
            "last_name": "Funke",
            "avatar": "https://reqres.in/img/faces/9-image.jpg"
        },
        {
            "id": 10,
            "email": "byron.fields@reqres.in",
            "first_name": "Byron",
            "last_name": "Fields",
            "avatar": "https://reqres.in/img/faces/10-image.jpg"
        },
        {
            "id": 11,
            "email": "george.edwards@reqres.in",
            "first_name": "George",
            "last_name": "Edwards",
            "avatar": "https://reqres.in/img/faces/11-image.jpg"
        },
        {
            "id": 12,
            "email": "rachel.howell@reqres.in",
            "first_name": "Rachel",
            "last_name": "Howell",
            "avatar": "https://reqres.in/img/faces/12-image.jpg"
        }
    ],
    "support": {
        "url": "https://reqres.in/#support-heading",
        "text": "To keep ReqRes free, contributions towards server costs are appreciated!"
    }
}
2023-09-11T04:04:35,395 [main] INFO  (CommonUtils.java:81) - Actual Emp Details: id-8  FirstName-Lindsay LastName-Ferguson
2023-09-11T04:04:35,397 [main] INFO  (CommonUtils.java:101) - Expected FirstName-Michael & LastName-Lawson  Details are not matching
2023-09-11T04:04:35,442 [main] INFO  (ExtentReportListener.java:97) - java.lang.AssertionError: expected [true] but found [false]
2023-09-11T04:04:37,101 [main] INFO  (APITest.java:42) - {
    "name": "shiv",
    "job": "DAM",
    "id": "406",
    "createdAt": "2023-09-10T22:34:37.000Z"
}
2023-09-11T11:46:02,051 [main] INFO  (APITest.java:26) - Verifying Employee's Firstname and last by Employee ID.................!!!
2023-09-11T11:46:06,598 [main] INFO  (APITest.java:29) - Employee details has been traced{
    "page": 2,
    "per_page": 6,
    "total": 12,
    "total_pages": 2,
    "data": [
        {
            "id": 7,
            "email": "michael.lawson@reqres.in",
            "first_name": "Michael",
            "last_name": "Lawson",
            "avatar": "https://reqres.in/img/faces/7-image.jpg"
        },
        {
            "id": 8,
            "email": "lindsay.ferguson@reqres.in",
            "first_name": "Lindsay",
            "last_name": "Ferguson",
            "avatar": "https://reqres.in/img/faces/8-image.jpg"
        },
        {
            "id": 9,
            "email": "tobias.funke@reqres.in",
            "first_name": "Tobias",
            "last_name": "Funke",
            "avatar": "https://reqres.in/img/faces/9-image.jpg"
        },
        {
            "id": 10,
            "email": "byron.fields@reqres.in",
            "first_name": "Byron",
            "last_name": "Fields",
            "avatar": "https://reqres.in/img/faces/10-image.jpg"
        },
        {
            "id": 11,
            "email": "george.edwards@reqres.in",
            "first_name": "George",
            "last_name": "Edwards",
            "avatar": "https://reqres.in/img/faces/11-image.jpg"
        },
        {
            "id": 12,
            "email": "rachel.howell@reqres.in",
            "first_name": "Rachel",
            "last_name": "Howell",
            "avatar": "https://reqres.in/img/faces/12-image.jpg"
        }
    ],
    "support": {
        "url": "https://reqres.in/#support-heading",
        "text": "To keep ReqRes free, contributions towards server costs are appreciated!"
    }
}
2023-09-11T11:46:06,620 [main] INFO  (CommonUtils.java:81) - Actual Emp Details: id-8  FirstName-Lindsay LastName-Ferguson
2023-09-11T11:46:06,621 [main] INFO  (CommonUtils.java:101) - Expected FirstName-Michael & LastName-Lawson  Details are not matching
2023-09-11T11:46:06,672 [main] INFO  (ExtentReportListener.java:97) - java.lang.AssertionError: expected [true] but found [false]
2023-09-11T11:46:08,086 [main] INFO  (APITest.java:42) - {
    "name": "shiv",
    "job": "DAM",
    "id": "791",
    "createdAt": "2023-09-11T06:16:08.126Z"
}
